cd13879a-3661-4161-8ec9-850cbc3ed208|Андрей|Бандеров|andrew@mail.ru|op[]456
f29df694-d617-4e9b-b2ca-dbf8980513e3|Кирилл2|Случаев|skiryxa@mail.ru|123йцук
0853edd5-570d-495c-bbde-fad11e5d5e83|Марсель|Сидиков|sidikov.marsel@gmail.com|qwerty0010
